/home/thegrymek/Desktop/tadeusz/panzerkampfwagen-osgi2/Bullet/src/main/java/panzerkamp/object/bullet/Kugel.java
/home/thegrymek/Desktop/tadeusz/panzerkampfwagen-osgi2/Bullet/src/main/java/panzerkamp/object/bullet/package-info.java
/home/thegrymek/Desktop/tadeusz/panzerkampfwagen-osgi2/Bullet/src/main/java/panzerkamp/object/bullet/IKugel.java
/home/thegrymek/Desktop/tadeusz/panzerkampfwagen-osgi2/Bullet/src/main/java/panzerkamp/object/bullet/Activator.java
/home/thegrymek/Desktop/tadeusz/panzerkampfwagen-osgi2/Bullet/src/main/java/panzerkamp/object/bullet/EinFacheKugel.java
