maybach/engine/Engine$TMouseAdapter.class
maybach/layer/Layer.class
maybach/object/Shape.class
maybach/object/Rectangle.class
maybach/Activator.class
maybach/object/Circle.class
maybach/object/Point.class
maybach/layer/ILayer.class
maybach/engine/IEngine.class
maybach/object/Line.class
maybach/engine/Engine$TKeyAdapter.class
maybach/engine/Engine.class
maybach/object/IShape.class
maybach/collision/TestCollision.class
maybach/engine/Engine$1.class
maybach/object/Text2D.class
maybach/object/Sprite.class
